Team-19
…
Inference: This data clearly shows how some countries are very much devalued or in-expensive compared to other countries. For example Avergae cost in USA is 26$ while in India it is 623Rs. or just 8$.

4. TreeMap of Locations in Banglore

ST3 <- data1 %>%
  group_by(location, name) %>%
  summarise(
    avg.rating = mean(rate)
  )

## `summarise()` has grouped output by 'location'. You can override using the `.groups` argument.

ST3

## # A tibble: 9,551 x 3
## # Groups:   location [92]
##    location     name                          avg.rating
##    <chr>        <chr>                              <dbl>
##  1 Banashankari 1947                                4   
##  2 Banashankari 360 Atoms Restaurant And Cafe       3.1 
##  3 Banashankari 7 Hills Garden Restaurant           3   
##  4 Banashankari Addhuri Udupi Bhojana               3.7 
##  5 Banashankari Amma's Pastries                     3.8 
##  6 Banashankari Anand Sweets and Savouries          3.7 
##  7 Banashankari Ande Ka Funda                       3.82
##  8 Banashankari Anna Kuteera                        4   
##  9 Banashankari Aramane Donne Biryani               3.3 
## 10 Banashankari Arun Ice Cream                      3.4 
## # ... with 9,541 more rows
…
